{
  "page": 1,
  "per_page": 10,
  "total": 40,
  "total_pages": 4,
  "data": [
    {
      "id": 1001,
      "poNumber": "USPO01001",
      "supplierId": 2,
      "supplierName": "Globex Industrial",
      "daysLate": 22,
      "status": "OPEN",
      "lines": [
        {
          "lineId": 1,
          "itemId": 770487,
          "itemName": "303-9928-529",
          "orderedQty": 10,
          "receivedQty": 0
        }
      ]
    },
    {
      "id": 1002,
      "poNumber": "USPO01002",
      "supplierId": 3,
      "supplierName": "Initech Components",
      "daysLate": 14,
      "status": "OPEN",
      "lines": [
        {
          "lineId": 1,
          "itemId": 388389,
          "itemName": "532-6574-384",
          "orderedQty": 8,
          "receivedQty": 3
        },
        {
          "lineId": 2,
          "itemId": 207473,
          "itemName": "370-1711-847/A",
          "orderedQty": 100,
          "receivedQty": 100
        }
      ]
    },
    {
      "id": 1003,
      "poNumber": "USPO01003",
      "supplierId": 4,
      "supplierName": "Hooli Hardware",
      "daysLate": 45,
      "status": "OPEN",
      "lines": [
        {
          "lineId": 1,
          "itemId": 877572,
          "itemName": "925-3615-814",
          "orderedQty": 20,
          "receivedQty": 10
        }
      ]
    },
    {
      "id": 1004,
      "poNumber": "USPO01004",
      "supplierId": 5,
      "supplierName": "Meridian Materials",
      "daysLate": 5,
      "status": "OPEN",
      "lines": [
        {
          "lineId": 1,
          "itemId": 216739,
          "itemName": "325-8359-703",
          "orderedQty": 7,
          "receivedQty": 2
        }
      ]
    },
    {
      "id": 1005,
      "poNumber": "USPO01005",
      "supplierId": 1,
      "supplierName": "Acme Supply Co",
      "daysLate": 0,
      "status": "OPEN",
      "lines": [
        {
          "lineId": 1,
          "itemId": 126225,
          "itemName": "384-1106-877/A",
          "orderedQty": 4,
          "receivedQty": 0
        }
      ]
    },
    {
      "id": 1006,
      "poNumber": "USPO01006",
      "supplierId": 2,
      "supplierName": "Globex Industrial",
      "daysLate": -3,
      "status": "OPEN",
      "lines": [
        {
          "lineId": 1,
          "itemId": 770487,
          "itemName": "303-9928-529",
          "orderedQty": 5,
          "receivedQty": 0
        }
      ]
    },
    {
      "id": 1007,
      "poNumber": "USPO01007",
      "supplierId": 3,
      "supplierName": "Initech Components",
      "daysLate": 80,
      "status": "OPEN",
      "lines": [
        {
          "lineId": 1,
          "itemId": 356787,
          "itemName": "259-4527-881",
          "orderedQty": 10,
          "receivedQty": 5
        }
      ]
    },
    {
      "id": 1008,
      "poNumber": "USPO01008",
      "supplierId": 4,
      "supplierName": "Hooli Hardware",
      "daysLate": 18,
      "status": "OPEN",
      "lines": [
        {
          "lineId": 1,
          "itemId": 334053,
          "itemName": "444-2674-194",
          "orderedQty": 3,
          "receivedQty": 1
        },
        {
          "lineId": 2,
          "itemId": 246316,
          "itemName": "489-2584-467",
          "orderedQty": 5,
          "receivedQty": 2
        }
      ]
    },
    {
      "id": 1009,
      "poNumber": "USPO01009",
      "supplierId": 5,
      "supplierName": "Meridian Materials",
      "daysLate": 10,
      "status": "OPEN",
      "lines": [
        {
          "lineId": 1,
          "itemId": 877572,
          "itemName": "925-3615-814",
          "orderedQty": 3,
          "receivedQty": 0
        }
      ]
    },
    {
      "id": 1010,
      "poNumber": "USPO01010",
      "supplierId": 1,
      "supplierName": "Acme Supply Co",
      "daysLate": 33,
      "status": "OPEN",
      "lines": [
        {
          "lineId": 1,
          "itemId": 388389,
          "itemName": "532-6574-384",
          "orderedQty": 15,
          "receivedQty": 5
        }
      ]
    }
  ]
}