{
  "page": 2,
  "per_page": 10,
  "total": 40,
  "total_pages": 4,
  "data": [
    {
      "id": 1011,
      "poNumber": "USPO01011",
      "supplierId": 2,
      "supplierName": "McMaster-Carr",
      "daysLate": 7,
      "status": "OPEN",
      "lines": [
        {
          "lineId": 1,
          "itemId": 108,
          "itemName": "JK-ITEM-0108",
          "orderedQty": 5,
          "receivedQty": 4
        }
      ]
    },
    {
      "id": 1012,
      "poNumber": "USPO01012",
      "supplierId": 3,
      "supplierName": "Digi-Key",
      "daysLate": 50,
      "status": "OPEN",
      "lines": [
        {
          "lineId": 1,
          "itemId": 102,
          "itemName": "JK-ITEM-0102",
          "orderedQty": 12,
          "receivedQty": 2
        }
      ]
    },
    {
      "id": 1013,
      "poNumber": "USPO01013",
      "supplierId": 4,
      "supplierName": "Mouser",
      "daysLate": 90,
      "status": "OPEN",
      "lines": [
        {
          "lineId": 1,
          "itemId": 109,
          "itemName": "JK-ITEM-0109",
          "orderedQty": 2,
          "receivedQty": 0
        }
      ]
    },
    {
      "id": 1014,
      "poNumber": "USPO01014",
      "supplierId": 5,
      "supplierName": "Fastenal",
      "daysLate": 25,
      "status": "OPEN",
      "lines": [
        {
          "lineId": 1,
          "itemId": 101,
          "itemName": "JK-ITEM-0101",
          "orderedQty": 3,
          "receivedQty": 3
        },
        {
          "lineId": 2,
          "itemId": 103,
          "itemName": "JK-ITEM-0103",
          "orderedQty": 8,
          "receivedQty": 3
        }
      ]
    },
    {
      "id": 1015,
      "poNumber": "USPO01015",
      "supplierId": 1,
      "supplierName": "Grainger",
      "daysLate": 60,
      "status": "OPEN",
      "lines": [
        {
          "lineId": 1,
          "itemId": 106,
          "itemName": "JK-ITEM-0106",
          "orderedQty": 5,
          "receivedQty": 2
        }
      ]
    },
    {
      "id": 1016,
      "poNumber": "USPO01016",
      "supplierId": 2,
      "supplierName": "McMaster-Carr",
      "daysLate": 2,
      "status": "OPEN",
      "lines": [
        {
          "lineId": 1,
          "itemId": 110,
          "itemName": "JK-ITEM-0110",
          "orderedQty": 50,
          "receivedQty": 0
        }
      ]
    },
    {
      "id": 1017,
      "poNumber": "USPO01017",
      "supplierId": 3,
      "supplierName": "Digi-Key",
      "daysLate": 40,
      "status": "OPEN",
      "lines": [
        {
          "lineId": 1,
          "itemId": 105,
          "itemName": "JK-ITEM-0105",
          "orderedQty": 20,
          "receivedQty": 10
        },
        {
          "lineId": 2,
          "itemId": 107,
          "itemName": "JK-ITEM-0107",
          "orderedQty": 4,
          "receivedQty": 1
        }
      ]
    },
    {
      "id": 1018,
      "poNumber": "USPO01018",
      "supplierId": 4,
      "supplierName": "Mouser",
      "daysLate": 150,
      "status": "OPEN",
      "lines": [
        {
          "lineId": 1,
          "itemId": 102,
          "itemName": "JK-ITEM-0102",
          "orderedQty": 8,
          "receivedQty": 2
        }
      ]
    },
    {
      "id": 1019,
      "poNumber": "USPO01019",
      "supplierId": 5,
      "supplierName": "Fastenal",
      "daysLate": 12,
      "status": "OPEN",
      "lines": [
        {
          "lineId": 1,
          "itemId": 104,
          "itemName": "JK-ITEM-0104",
          "orderedQty": 5,
          "receivedQty": 0
        }
      ]
    },
    {
      "id": 1020,
      "poNumber": "USPO01020",
      "supplierId": 1,
      "supplierName": "Grainger",
      "daysLate": 35,
      "status": "OPEN",
      "lines": [
        {
          "lineId": 1,
          "itemId": 105,
          "itemName": "JK-ITEM-0105",
          "orderedQty": 6,
          "receivedQty": 1
        }
      ]
    }
  ]
}