{
  "page": 3,
  "per_page": 10,
  "total": 40,
  "total_pages": 4,
  "data": [
    {
      "id": 1021,
      "poNumber": "USPO01021",
      "supplierId": 2,
      "supplierName": "McMaster-Carr",
      "daysLate": 180,
      "status": "OPEN",
      "lines": [
        {
          "lineId": 1,
          "itemId": 111,
          "itemName": "JK-ITEM-0111",
          "orderedQty": 20,
          "receivedQty": 5
        }
      ]
    },
    {
      "id": 1022,
      "poNumber": "USPO01022",
      "supplierId": 3,
      "supplierName": "Digi-Key",
      "daysLate": 8,
      "status": "OPEN",
      "lines": [
        {
          "lineId": 1,
          "itemId": 112,
          "itemName": "JK-ITEM-0112",
          "orderedQty": 6,
          "receivedQty": 0
        }
      ]
    },
    {
      "id": 1023,
      "poNumber": "USPO01023",
      "supplierId": 4,
      "supplierName": "Mouser",
      "daysLate": 1,
      "status": "OPEN",
      "lines": [
        {
          "lineId": 1,
          "itemId": 113,
          "itemName": "JK-ITEM-0113",
          "orderedQty": 10,
          "receivedQty": 5
        }
      ]
    },
    {
      "id": 1024,
      "poNumber": "USPO01024",
      "supplierId": 5,
      "supplierName": "Fastenal",
      "daysLate": 120,
      "status": "OPEN",
      "lines": [
        {
          "lineId": 1,
          "itemId": 114,
          "itemName": "JK-ITEM-0114",
          "orderedQty": 30,
          "receivedQty": 10
        }
      ]
    },
    {
      "id": 1025,
      "poNumber": "USPO01025",
      "supplierId": 1,
      "supplierName": "Grainger",
      "daysLate": 55,
      "status": "OPEN",
      "lines": [
        {
          "lineId": 1,
          "itemId": 115,
          "itemName": "JK-ITEM-0115",
          "orderedQty": 8,
          "receivedQty": 0
        }
      ]
    },
    {
      "id": 1026,
      "poNumber": "USPO01026",
      "supplierId": 2,
      "supplierName": "McMaster-Carr",
      "daysLate": 20,
      "status": "OPEN",
      "lines": [
        {
          "lineId": 1,
          "itemId": 116,
          "itemName": "JK-ITEM-0116",
          "orderedQty": 15,
          "receivedQty": 10
        },
        {
          "lineId": 2,
          "itemId": 117,
          "itemName": "JK-ITEM-0117",
          "orderedQty": 5,
          "receivedQty": 2
        }
      ]
    },
    {
      "id": 1027,
      "poNumber": "USPO01027",
      "supplierId": 3,
      "supplierName": "Digi-Key",
      "daysLate": 0,
      "status": "OPEN",
      "lines": [
        {
          "lineId": 1,
          "itemId": 118,
          "itemName": "JK-ITEM-0118",
          "orderedQty": 3,
          "receivedQty": 0
        }
      ]
    },
    {
      "id": 1028,
      "poNumber": "USPO01028",
      "supplierId": 4,
      "supplierName": "Mouser",
      "daysLate": 3,
      "status": "OPEN",
      "lines": [
        {
          "lineId": 1,
          "itemId": 119,
          "itemName": "JK-ITEM-0119",
          "orderedQty": 12,
          "receivedQty": 5
        }
      ]
    },
    {
      "id": 1029,
      "poNumber": "USPO01029",
      "supplierId": 5,
      "supplierName": "Fastenal",
      "daysLate": 100,
      "status": "OPEN",
      "lines": [
        {
          "lineId": 1,
          "itemId": 120,
          "itemName": "JK-ITEM-0120",
          "orderedQty": 25,
          "receivedQty": 0
        }
      ]
    },
    {
      "id": 1030,
      "poNumber": "USPO01030",
      "supplierId": 1,
      "supplierName": "Grainger",
      "daysLate": 28,
      "status": "OPEN",
      "lines": [
        {
          "lineId": 1,
          "itemId": 121,
          "itemName": "JK-ITEM-0121",
          "orderedQty": 10,
          "receivedQty": 4
        }
      ]
    }
  ]
}