{
  "page": 4,
  "per_page": 10,
  "total": 40,
  "total_pages": 4,
  "data": [
    {
      "id": 1031,
      "poNumber": "USPO01031",
      "supplierId": 2,
      "supplierName": "McMaster-Carr",
      "daysLate": 65,
      "status": "OPEN",
      "lines": [
        {
          "lineId": 1,
          "itemId": 122,
          "itemName": "JK-ITEM-0122",
          "orderedQty": 7,
          "receivedQty": 2
        },
        {
          "lineId": 2,
          "itemId": 123,
          "itemName": "JK-ITEM-0123",
          "orderedQty": 4,
          "receivedQty": 1
        }
      ]
    },
    {
      "id": 1032,
      "poNumber": "USPO01032",
      "supplierId": 3,
      "supplierName": "Digi-Key",
      "daysLate": 42,
      "status": "OPEN",
      "lines": [
        {
          "lineId": 1,
          "itemId": 124,
          "itemName": "JK-ITEM-0124",
          "orderedQty": 20,
          "receivedQty": 18
        }
      ]
    },
    {
      "id": 1033,
      "poNumber": "USPO01033",
      "supplierId": 4,
      "supplierName": "Mouser",
      "daysLate": -5,
      "status": "OPEN",
      "lines": [
        {
          "lineId": 1,
          "itemId": 125,
          "itemName": "JK-ITEM-0125",
          "orderedQty": 100,
          "receivedQty": 0
        }
      ]
    },
    {
      "id": 1034,
      "poNumber": "USPO01034",
      "supplierId": 5,
      "supplierName": "Fastenal",
      "daysLate": 11,
      "status": "OPEN",
      "lines": [
        {
          "lineId": 1,
          "itemId": 111,
          "itemName": "JK-ITEM-0111",
          "orderedQty": 15,
          "receivedQty": 10
        }
      ]
    },
    {
      "id": 1035,
      "poNumber": "USPO01035",
      "supplierId": 1,
      "supplierName": "Grainger",
      "daysLate": 75,
      "status": "OPEN",
      "lines": [
        {
          "lineId": 1,
          "itemId": 112,
          "itemName": "JK-ITEM-0112",
          "orderedQty": 4,
          "receivedQty": 0
        }
      ]
    },
    {
      "id": 1036,
      "poNumber": "USPO01036",
      "supplierId": 2,
      "supplierName": "McMaster-Carr",
      "daysLate": 6,
      "status": "OPEN",
      "lines": [
        {
          "lineId": 1,
          "itemId": 118,
          "itemName": "JK-ITEM-0118",
          "orderedQty": 8,
          "receivedQty": 3
        }
      ]
    },
    {
      "id": 1037,
      "poNumber": "USPO01037",
      "supplierId": 3,
      "supplierName": "Digi-Key",
      "daysLate": 9,
      "status": "OPEN",
      "lines": [
        {
          "lineId": 1,
          "itemId": 121,
          "itemName": "JK-ITEM-0121",
          "orderedQty": 5,
          "receivedQty": 0
        }
      ]
    },
    {
      "id": 1038,
      "poNumber": "USPO01038",
      "supplierId": 4,
      "supplierName": "Mouser",
      "daysLate": 30,
      "status": "OPEN",
      "lines": [
        {
          "lineId": 1,
          "itemId": 113,
          "itemName": "JK-ITEM-0113",
          "orderedQty": 20,
          "receivedQty": 5
        },
        {
          "lineId": 2,
          "itemId": 122,
          "itemName": "JK-ITEM-0122",
          "orderedQty": 3,
          "receivedQty": 0
        }
      ]
    },
    {
      "id": 1039,
      "poNumber": "USPO01039",
      "supplierId": 5,
      "supplierName": "Fastenal",
      "daysLate": 160,
      "status": "OPEN",
      "lines": [
        {
          "lineId": 1,
          "itemId": 103,
          "itemName": "JK-ITEM-0103",
          "orderedQty": 6,
          "receivedQty": 0
        }
      ]
    },
    {
      "id": 1040,
      "poNumber": "USPO01040",
      "supplierId": 1,
      "supplierName": "Grainger",
      "daysLate": 17,
      "status": "OPEN",
      "lines": [
        {
          "lineId": 1,
          "itemId": 119,
          "itemName": "JK-ITEM-0119",
          "orderedQty": 4,
          "receivedQty": 1
        }
      ]
    }
  ]
}